name,subcategory,slug,icon,type
Produce,"Cut Fruit,Fresh Fruits,Fresh Vegetables,Packaged Vegetables & Fruits,Fresh Herbs,Tofu & Meat Alternatives,Dips,,,,,",Produce,,grocery
Dairy & Eggs,"Shelf Stable Milk,Packaged Cheese,Yogurt,Milk,Cream,Eggs,Butter,Other Creams & Cheeses,Soy & Lactose-Free,Refrigerated Pudding & Desserts,,",Dairy & Eggs,,grocery
Meat & Seafood,"Sushi,Meat Counter,Seafood Counter,Packaged Meat,Packaged Poultry,Packaged Seafood,Hot Dogs, Bacon & Sausage,,,,,",Meat & Seafood,,grocery
Beverages,"Juice Box,Water, Seltzer & Sparkling Water,Coffee,Tea,Juice & Nectars,Energy & Sports Drinks,Soft Drinks,Cocoa & Drink Mixes,,,,",Beverages,,grocery
Frozen,"Premium Ice Cream Quarts,Ice Cream & Ice,Frozen Breakfast,Frozen Appetizers & Sides,Frozen Meals,Frozen Pizza,Frozen Breads & Doughs,Frozen Produce,Frozen Meat & Seafood,Frozen Vegan & Vegetarian,Frozen Dessert,Frozen Juice",Frozen,,grocery
Snacks,"Chips & Pretzels,Candy & Chocolate,Cookies & Cakes,Crackers,Energy & Granola Bars,Ice Cream Toppings,Nuts, Seeds & Dried Fruit,Popcorn & Jerky,Trail Mix & Snack Mix,Mint & Gum,Fruit & Vegetable Snacks,",Snacks,,grocery
Pantry,"Condiments,Honeys, Syrups & Nectars,Spreads,Salad Dressing & Toppings,Oils & Vinegars,Pickled Goods & Olives,Marinades & Meat Preparation,Preserved Dips & Spreads,Doughs, Gelatins & Bake Mixes,Spices & Seasonings,Baking Ingredients,Baking Supplies & Decor",Pantry,,grocery
Wine,"Single Serve Wines,White,Sparkling,Red,France Italy Spain,Mixed Drinks,,,,,,",Wine,,grocery
Beer,"Domestic Beer,Flavored Adult Beverages,Import Beer,Craft Beer,Mixed Drinks,,,,,,,",Beer,,grocery
Household,"Air Fresheners & Candles,Cleaning Products,Dish Detergents,Food Storage,,,,,,,,",Household,,grocery
Dry Goods & Pasta,"Instant Foods,Grains, Rice & Dried Goods,Dry Pasta,Pasta Sauce,,,,,,,,",Dry Goods & Pasta,,grocery
Deli,"Tofu & Meat Alternatives,Lunch Meat,Specialty Cheeses,Prepared Meals,,,,,,,,",Deli,,grocery
Bakery,"Bread,Tortillas & Flat Bread,Buns & Rolls,Breakfast Bakery,Bakery Desserts,,,,,,,",Bakery,,grocery
Bulk,"Bulk Grains, Rice & Dried Beans,Bulk Tea & Coffee,Bulk Flours & Powders,Bulk Nuts & Seeds,,,,,,,,",Bulk,,grocery
International,"Asian Foods,Latino Foods,More International Foods,Kosher Foods,Caribbean Foods,,,,,,,",International,,grocery
Breakfast,"Cereal,Hot Cereal & Pancake Mixes,Granola,Breakfast Bars & Pastries,,,,,,,,",Breakfast,,grocery
Personal Care,"Deodorants,Body Lotions & Soap,Oral Hygiene,Feminine Care,,,,,,,,",Personal Care,,grocery
Babies,"Baby Accessories,Baby Food & Formula,Diapers & Wipes,Baby Bath & Body Care,Baby First Aid & Vitamins,,,,,,,",Babies,,grocery
Pets,"Cat Food & Care,Dog Food & Care,Small Animal Care,,,,,,,,,",Pets,,grocery