name,type,slug,icon,category,product
Cut Fruit,grocery,Cut Fruit,,Produce,
Fresh Fruits,grocery,Fresh Fruits,,Produce,
Fresh Vegetables,grocery,Fresh Vegetables,,Produce,
Packaged Vegetables & Fruits,grocery,Packaged Vegetables & Fruits,,Produce,
Fresh Herbs,grocery,Fresh Herbs,,Produce,
Tofu & Meat Alternatives,grocery,Tofu & Meat Alternatives,,Produce,
Dips,grocery,Dips,,Dairy & Eggs,
Shelf Stable Milk,grocery,Shelf Stable Milk,,Dairy & Eggs,
Packaged Cheese,grocery,Packaged Cheese,,Dairy & Eggs,
Yogurt,grocery,Yogurt,,Dairy & Eggs,
Milk,grocery,Milk,,Dairy & Eggs,
Cream,grocery,Cream,,Dairy & Eggs,
Eggs,grocery,Eggs,,Dairy & Eggs,
Butter,grocery,Butter,,Dairy & Eggs,
Other Creams & Cheeses,grocery,Other Creams & Cheeses,,Dairy & Eggs,
Soy & Lactose-Free,grocery,Soy & Lactose-Free,,Dairy & Eggs,
Refrigerated Pudding & Desserts,grocery,Refrigerated Pudding & Desserts,,Dairy & Eggs,
Sushi,grocery,Sushi,,Meat & Seafood,
Meat Counter,grocery,Meat Counter,,Meat & Seafood,
Seafood Counter,grocery,Seafood Counter,,Meat & Seafood,
Packaged Meat,grocery,Packaged Meat,,Meat & Seafood,
Packaged Poultry,grocery,Packaged Poultry,,Meat & Seafood,
Packaged Seafood,grocery,Packaged Seafood,,Meat & Seafood,
"Hot Dogs, Bacon & Sausage",grocery,"Hot Dogs, Bacon & Sausage",,Meat & Seafood,
Juice Box,grocery,Juice Box,,Beverages,
"Water, Seltzer & Sparkling Water",grocery,"Water, Seltzer & Sparkling Water",,Beverages,
Coffee,grocery,Coffee,,Beverages,
Tea,grocery,Tea,,Beverages,
Juice & Nectars,grocery,Juice & Nectars,,Beverages,
Energy & Sports Drinks,grocery,Energy & Sports Drinks,,Beverages,
Soft Drinks,grocery,Soft Drinks,,Beverages,
Cocoa & Drink Mixes,grocery,Cocoa & Drink Mixes,,Beverages,
Premium Ice Cream Quarts,grocery,Premium Ice Cream Quarts,,Frozen,
Ice Cream & Ice,grocery,Ice Cream & Ice,,Frozen,
Frozen Breakfast,grocery,Frozen Breakfast,,Frozen,
Frozen Appetizers & Sides,grocery,Frozen Appetizers & Sides,,Frozen,
Frozen Meals,grocery,Frozen Meals,,Frozen,
Frozen Pizza,grocery,Frozen Pizza,,Frozen,
Frozen Breads & Doughs,grocery,Frozen Breads & Doughs,,Frozen,
Frozen Produce,grocery,Frozen Produce,,Frozen,
Frozen Meat & Seafood,grocery,Frozen Meat & Seafood,,Frozen,
Frozen Vegan & Vegetarian,grocery,Frozen Vegan & Vegetarian,,Frozen,
Frozen Dessert,grocery,Frozen Dessert,,Frozen,
Chips & Pretzels,grocery,Chips & Pretzels,,Frozen,
Chips & Pretzels,grocery,Chips & Pretzels,,Snacks,
Candy & Chocolate,grocery,Candy & Chocolate,,Snacks,
Cookies & Cakes,grocery,Cookies & Cakes,,Snacks,
Crackers,grocery,Crackers,,Snacks,
Energy & Granola Bars,grocery,Energy & Granola Bars,,Snacks,
Ice Cream Toppings,grocery,Ice Cream Toppings,,Snacks,
"Nuts, Seeds & Dried Fruit",grocery,"Nuts, Seeds & Dried Fruit",,Snacks,
Popcorn & Jerky,grocery,Popcorn & Jerky,,Snacks,
Trail Mix & Snack Mix,grocery,Trail Mix & Snack Mix,,Snacks,
Mint & Gum,grocery,Mint & Gum,,Snacks,
Fruit & Vegetable Snacks,grocery,Fruit & Vegetable Snacks,,Snacks,
Condiments,grocery,Condiments,,Pantry,
"Honeys, Syrups & Nectars",grocery,"Honeys, Syrups & Nectars",,Pantry,
Spreads,grocery,Spreads,,Pantry,
Salad Dressing & Toppings,grocery,Salad Dressing & Toppings,,Pantry,
Oils & Vinegars,grocery,Oils & Vinegars,,Pantry,
Pickled Goods & Olives,grocery,Pickled Goods & Olives,,Pantry,
Marinades & Meat Preparation,grocery,Marinades & Meat Preparation,,Pantry,
Preserved Dips & Spreads,grocery,Preserved Dips & Spreads,,Pantry,
"Doughs, Gelatins & Bake Mixes",grocery,"Doughs, Gelatins & Bake Mixes",,Pantry,
Spices & Seasonings,grocery,Spices & Seasonings,,Pantry,
Baking Ingredients,grocery,Baking Ingredients,,Pantry,
Baking Supplies & Decor,grocery,Baking Supplies & Decor,,Pantry,
Single Serve Wines,grocery,Single Serve Wines,,Wine,
White,grocery,White,,Wine,
Sparkling,grocery,Sparkling,,Wine,
Red,grocery,Red,,Wine,
France Italy Spain,grocery,France Italy Spain,,Wine,
Mixed Drinks,grocery,Mixed Drinks,,Wine,
Domestic Beer,grocery,Domestic Beer,,Beer,
Flavored Adult Beverages,grocery,Flavored Adult Beverages,,Beer,
Import Beer,grocery,Import Beer,,Beer,
Craft Beer,grocery,Craft Beer,,Beer,
Mixed Drinks,grocery,Mixed Drinks,,Beer,
Air Fresheners & Candles,grocery,Air Fresheners & Candles,,Household,
Cleaning Products,grocery,Cleaning Products,,Household,
Dish Detergents,grocery,Dish Detergents,,Household,
Food Storage,grocery,Food Storage,,Household,
Instant Foods,grocery,Instant Foods,,Dry Goods & Pasta,
"Grains, Rice & Dried Goods",grocery,"Grains, Rice & Dried Goods",,Dry Goods & Pasta,
Dry Pasta,grocery,Dry Pasta,,Dry Goods & Pasta,
Pasta Sauce,grocery,Pasta Sauce,,Dry Goods & Pasta,
Tofu & Meat Alternatives,grocery,Tofu & Meat Alternatives,,Deli,
Lunch Meat,grocery,Lunch Meat,,Deli,
Specialty Cheeses,grocery,Specialty Cheeses,,Deli,
Prepared Meals,grocery,Prepared Meals,,Deli,
Bread,grocery,Bread,,Bakery,
Tortillas & Flat Bread,grocery,Tortillas & Flat Bread,,Bakery,
Buns & Rolls,grocery,Buns & Rolls,,Bakery,
Bakery Desserts,grocery,Bakery Desserts,,Bakery,
"Bulk Grains, Rice & Dried Beans",grocery,"Bulk Grains, Rice & Dried Beans",,Bulk,
Bulk Tea & Coffee,grocery,Bulk Tea & Coffee,,Bulk,
Bulk Flours & Powders,grocery,Bulk Flours & Powders,,Bulk,
Bulk Nuts & Seeds,grocery,Bulk Nuts & Seeds,,Bulk,
Asian Foods,grocery,Asian Foods,,International,
Latino Foods,grocery,Latino Foods,,International,
More International Foods,grocery,More International Foods,,International,
Caribbean Foods,grocery,Caribbean Foods,,International,
Cereal,grocery,Cereal,,Breakfast,
Hot Cereal & Pancake Mixes,grocery,Hot Cereal & Pancake Mixes,,Breakfast,
Granola,grocery,Granola,,Breakfast,
Breakfast Bars & Pastries,grocery,Breakfast Bars & Pastries,,Breakfast,
Deodorants,grocery,Deodorants,,Personal Care,
Body Lotions & Soap,grocery,Body Lotions & Soap,,Personal Care,
Oral Hygiene,grocery,Oral Hygiene,,Personal Care,
Feminine Care,grocery,Feminine Care,,Personal Care,
Baby Accessories,grocery,Baby Accessories,,Babies,
Baby Food & Formula,grocery,Baby Food & Formula,,Babies,
Diapers & Wipes,grocery,Diapers & Wipes,,Babies,
Baby Bath & Body Care,grocery,Baby Bath & Body Care,,Babies,
Baby First Aid & Vitamins,grocery,Baby First Aid & Vitamins,,Babies,
Cat Food & Care,grocery,Cat Food & Care,,Pets,
Dog Food & Care,grocery,Dog Food & Care,,Pets,
Small Animal Care,grocery,Small Animal Care,,Pets,