[   
    {
        "id": 1,
        "name": "Target",
        "logo": "https://d2d8wwwkmhfcva.cloudfront.net/156x/d2lnr5mha7bycj.cloudfront.net/warehouse/logo/648/e1c282e5-21e7-4ebb-8936-cf23fbec29d9.png",
        "image": "",
        "type": "big-box retailer",
        "website": "www.target.com", 
        "creation_date": "2020-03-15",
        "locations": [
            {
                "id": 1,
                "street": "11253 Pines Blvd",
                "city": "Pembroke Pines",
                "state": "FL",
                "zip_code": "33026-4118"
            },
            {
                "id": 2,
                "street": "5800 S University Dr",
                "city": "Davie",
                "state": "FL",
                "zip_code": "33328-6102"
            },
            {
                "id": 3,
                "street": "16901 Miramar Pkwy",
                "city": "Miramar",
                "state": "FL",
                "zip_code": "33027-4528"
            }
        ]
    },
    {
        "id": 2,
        "name": "Key Food",
        "logo": "https://longislandcityqueens.com/media/filer_public_thumbnails/filer_public/a9/a3/a9a3a690-dcc0-422f-ad84-12ef45e451e9/kf_register_fresh_logo.jpg__1100x530_q85_crop_subsampling-2.jpg",
        "image": "https://www.supermarketnews.com/sites/supermarketnews.com/files/styles/article_featured_standard/public/KeyFoodHarlemPromo_0.jpg",
        "type": "Supermarket",
        "website": "http://www.keyfoodstores.com", 
        "creation_date": "2020-03-15",
        "locations": [
            {
                "id": 1,
                "street": "1769 St",
                "city": "New York",
                "state": "NY",
                "zip_code": "10001"
            },
            {
                "id": 2,
                "street": "4365 Broadway W 187th St",
                "city": "New York",
                "state": "NY",
                "zip_code": "10001"
            },
            {
                "id": 3,
                "street": "43 Columbia St",
                "city": "New York",
                "state": "NY",
                "zip_code": "10002"
            },
            {
                "id": 4,
                "street": "459 Forest Ave",
                "city": "Staten Island",
                "state": "NY",
                "zip_code": "10301"
            },
            {
                "id": 5,
                "street": "1200 South Ave Ste 103",
                "city": "Staten Island",
                "state": "NY",
                "zip_code": "10314"
            },
            {
                "id": 6,
                "street": "1791 Walton Ave",
                "city": "Bronx",
                "state": "NY",
                "zip_code": "10453"
            },
            {
                "id": 7,
                "street": "3151 Westchester Ave",
                "city": "Bronx",
                "state": "NY",
                "zip_code": "10461"
            },
            {
                "id": 8,
                "street": "751 Lydig Ave",
                "city": "Bronx",
                "state": "NY",
                "zip_code": "10462"
            },
            {
                "id": 9,
                "street": "540 W 235th St",
                "city": "Bronx",
                "state": "NY",
                "zip_code": "10463"
            },
            {
                "id": 10,
                "street": "4171 White Plains Rd",
                "city": "Bronx",
                "state": "NY",
                "zip_code": "10466"
            },
            {
                "id": 11,
                "street": "3515 Jerome Ave",
                "city": "Bronx",
                "state": "NY",
                "zip_code": "10467"
            },
            {
                "id": 12,
                "street": "35 Pleasantville Rd",
                "city": "Pleasantville",
                "state": "NY",
                "zip_code": "10570"
            },
            {
                "id": 13,
                "street": "151 Covert Ave",
                "city": "Floral Park",
                "state": "NY",
                "zip_code": "11001"
            },
            {
                "id": 14,
                "street": "3221 Newtown Ave",
                "city": "Astoria",
                "state": "NY",
                "zip_code": "11102"
            },
            {
                "id": 15,
                "street": "4215 30th Ave",
                "city": "Astoria",
                "state": "NY",
                "zip_code": "11103"
            },
            {
                "id": 16,
                "street": "2215 31st St",
                "city": "Astoria",
                "state": "NY",
                "zip_code": "11105"
            },
            {
                "id": 17,
                "street": "369 Flatbush Avenue Ext",
                "city": "Brooklyn",
                "state": "NY",
                "zip_code": "11201"
            },
            {
                "id": 18,
                "street": "169 Atlantic Ave",
                "city": "Brooklyn",
                "state": "NY",
                "zip_code": "11201"
            },
            {
                "id": 19,
                "street": "106 Montague St",
                "city": "Brooklyn",
                "state": "NY",
                "zip_code": "11201"
            },
            {
                "id": 20,
                "street": "102 Montague St",
                "city": "Brooklyn",
                "state": "NY",
                "zip_code": "11201"
            },
            {
                "id": 21,
                "street": "9408 3rd Ave",
                "city": "Brooklyn",
                "state": "NY",
                "zip_code": "11209"
            },
            {
                "id": 22,
                "street": "2326 Nostrand Ave",
                "city": "Brooklyn",
                "state": "NY",
                "zip_code": "11210"
            },
            {
                "id": 23,
                "street": "575 Grand St",
                "city": "Brooklyn",
                "state": "NY",
                "zip_code": "11211"
            },
            {
                "id": 24,
                "street": "800 Rockaway Ave",
                "city": "Brooklyn",
                "state": "NY",
                "zip_code": "11212"
            },
            {
                "id": 25,
                "street": "589 Prospect Ave",
                "city": "Brooklyn",
                "state": "NY",
                "zip_code": "11215"
            },
            {
                "id": 26,
                "street": "130 7th Ave",
                "city": "Brooklyn",
                "state": "NY",
                "zip_code": "11215"
            },
            {
                "id": 27,
                "street": "1144 Fulton St",
                "city": "Brooklyn",
                "state": "NY",
                "zip_code": "11216"
            },
            {
                "id": 28,
                "street": "1533 Broadway",
                "city": "Brooklyn",
                "state": "NY",
                "zip_code": "11221"
            },
            {
                "id": 29,
                "street": "319 Kings Hwy",
                "city": "Brooklyn",
                "state": "NY",
                "zip_code": "11223"
            },
            {
                "id": 30,
                "street": "599 Avenue Z",
                "city": "Brooklyn",
                "state": "NY",
                "zip_code": "11223"
            },
            {
                "id": 31,
                "street": "505 Neptune Ave",
                "city": "Brooklyn",
                "state": "NY",
                "zip_code": "11224"
            },
            {
                "id": 32,
                "street": "2245 Gerritsen Ave",
                "city": "Brooklyn",
                "state": "NY",
                "zip_code": "11229"
            },
            {
                "id": 33,
                "street": "1407 Foster Ave",
                "city": "Brooklyn",
                "state": "NY",
                "zip_code": "11230"
            },
            {
                "id": 34,
                "street": "1804 Ralph Ave ",
                "city": "Brooklyn",
                "state": "NY",
                "zip_code": "11236"
            },
            {
                "id": 35,
                "street": "2066 Rockaway Pkwy",
                "city": "Brooklyn",
                "state": "NY",
                "zip_code": "11236"
            },
            {
                "id": 36,
                "street": "2503 Parsons Blvd",
                "city": "Flushing",
                "state": "NY",
                "zip_code": "11354"
            },
            {
                "id": 37,
                "street": "14241 Roosevelt Ave",
                "city": "Flushing",
                "state": "NY",
                "zip_code": "11354"
            },
            {
                "id": 38,
                "street": "17221 46th Ave",
                "city": "Flushing",
                "state": "NY",
                "zip_code": "11354"
            },
            {
                "id": 39,
                "street": "15355 Cross Island Pkwy",
                "city": "Whitestone",
                "state": "NY",
                "zip_code": "11357"
            },
            {
                "id": 40,
                "street": "241 38th Rd",
                "city": "Little Neck",
                "state": "NY",
                "zip_code": "11363"
            },
            {
                "id": 50,
                "street": "6150 Springfield Blvd",
                "city": "Oakland Gardens",
                "state": "NY",
                "zip_code": "11364"
            },
            {
                "id": 51,
                "street": "21414 73rd Ave",
                "city": "Oakland Gardens",
                "state": "NY",
                "zip_code": "11364"
            },
            {
                "id": 52,
                "street": "7301 37th Ave",
                "city": "Jackson Heights",
                "state": "NY",
                "zip_code": "11372"
            },
            {
                "id": 53,
                "street": "10827 Queens Blvd",
                "city": "Forest Hills",
                "state": "NY",
                "zip_code": "11375"
            },
            {
                "id": 54,
                "street": "10502 Queens Blvd",
                "city": "Forest Hills",
                "state": "NY",
                "zip_code": "11375"
            },
            {
                "id": 55,
                "street": "11634 Queens Blvd",
                "city": "Forest Hills",
                "state": "NY",
                "zip_code": "11375"
            },
            {
                "id": 56,
                "street": "6110 Queens Blvd",
                "city": "Woodside",
                "state": "NY",
                "zip_code": "11377"
            },
            {
                "id": 57,
                "street": "5915 Roosevelt Ave",
                "city": "Woodside",
                "state": "NY",
                "zip_code": "11377"
            },
            {
                "id": 58,
                "street": "8725 Lefferts Blvd",
                "city": "Richmond Hill",
                "state": "NY",
                "zip_code": "11418"
            },
            {
                "id": 59,
                "street": "11411 Lefferts Blvd",
                "city": "South Ozone Park",
                "state": "NY",
                "zip_code": "11420"
            },
            {
                "id": 60,
                "street": "14366 243rd St",
                "city": "Rosedale",
                "state": "NY",
                "zip_code": "11422"
            },
            {
                "id": 61,
                "street": "21322 Jamaica Ave",
                "city": "Queens Village",
                "state": "NY",
                "zip_code": "11428"
            },
            {
                "id": 62,
                "street": "16602 Baisley Blvd",
                "city": "Jamaica",
                "state": "NY",
                "zip_code": "11434"
            },
            {
                "id": 63,
                "street": "13837 Queens Blvd",
                "city": "Jamaica",
                "state": "NY",
                "zip_code": "11435"
            },
            {
                "id": 64,
                "street": "14827 Jamaica Ave",
                "city": "Jamaica",
                "state": "NY",
                "zip_code": "11435"
            },
            {
                "id": 65,
                "street": "153 7th St",
                "city": "Garden City",
                "state": "NY",
                "zip_code": "11530"
            },
            {
                "id": 66,
                "street": "1030 Railroad Ave",
                "city": "Woodmere",
                "state": "NY",
                "zip_code": "11598"
            },
            {
                "id": 67,
                "street": "2020 New Haven Ave",
                "city": "Far Rockaway",
                "state": "NY",
                "zip_code": "11691"
            },
            {
                "id": 68,
                "street": "1517 Broadway St",
                "city": "Buffalo",
                "state": "NY",
                "zip_code": "14212"
            },
            {
                "id": 69,
                "street": "2357 Lemoine Ave",
                "city": "Fort Lee",
                "state": "NJ",
                "zip_code": "07024"
            },
            {
                "id": 70,
                "street": "2411 S Archer Ave",
                "city": "Chicago",
                "state": "IL",
                "zip_code": "60616"
            },
            {
                "id": 71,
                "street": "1470 Orchard Park Rd",
                "city": "Buffalo",
                "state": "NY",
                "zip_code": "14224"
            },
            {
                "id": 72,
                "street": "1602 E 28th St",
                "city": "Lorain",
                "state": "OH",
                "zip_code": "44055"
            },
            {
                "id": 73,
                "street": "1816 Nw Miller Rd",
                "city": "Portland",
                "state": "OH",
                "zip_code": "97229"
            }
        ]
    }
] 